<svg width="500" height="429" viewBox="0 0 500 429" fill="none" xmlns="http://www.w3.org/2000/svg">
<g clip-path="url(#clip0)">
<path d="M438.618 208.963H434.167V417.862H438.618V208.963Z" fill="#3F3D56"/>
<path d="M479.694 235.584C479.978 308.631 436.727 368.086 436.727 368.086C436.727 368.086 393.016 309.108 392.733 236.061C392.45 163.014 435.7 103.56 435.7 103.56C435.7 103.56 479.411 162.538 479.694 235.584Z" fill="#3F3D56"/>
<path d="M349.625 307.253H347.336V414.694H349.625V307.253Z" fill="#3F3D56"/>
<path d="M370.752 320.945C370.897 358.515 348.652 389.093 348.652 389.093C348.652 389.093 326.171 358.759 326.025 321.19C325.88 283.62 348.125 253.041 348.125 253.041C348.125 253.041 370.606 283.375 370.752 320.945Z" fill="#3F3D56"/>
<path d="M394.746 429C428.999 429 456.766 423.942 456.766 417.704C456.766 411.465 428.999 406.407 394.746 406.407C360.492 406.407 332.725 411.465 332.725 417.704C332.725 423.942 360.492 429 394.746 429Z" fill="#3F3D56"/>
<path d="M399.861 154.427C394.606 143.877 384.21 143.385 384.21 143.385C384.21 143.385 374.08 141.846 367.582 157.914C361.525 172.89 353.166 187.35 366.236 190.855L368.597 182.124L370.059 191.505C371.92 191.665 373.787 191.702 375.652 191.619C389.649 191.082 402.98 191.776 402.55 185.808C401.98 177.874 404.917 164.578 399.861 154.427Z" fill="#2F2E41"/>
<path d="M380.938 174.294C380.938 174.294 387.729 185.591 383.654 194.735C379.58 203.88 393.161 213.563 393.161 213.563L403.121 187.742C403.121 187.742 391.35 178.598 394.519 169.991L380.938 174.294Z" fill="#FBBEBE"/>
<path d="M385.465 179.136C391.966 179.136 397.236 172.874 397.236 165.15C397.236 157.426 391.966 151.164 385.465 151.164C378.965 151.164 373.695 157.426 373.695 165.15C373.695 172.874 378.965 179.136 385.465 179.136Z" fill="#FBBEBE"/>
<path d="M344.73 181.317L354.567 166.238C354.567 166.238 358.03 150.431 363.047 151.232C368.063 152.033 361.065 170.188 361.065 170.188L351.292 186.88L344.73 181.317Z" fill="#FBBEBE"/>
<path d="M394.52 381.932L397.688 401.835L404.479 403.987L402.668 380.318L394.52 381.932Z" fill="#FBBEBE"/>
<path d="M462.878 360.415L475.101 380.318L480.081 383.008L484.155 374.939L471.932 356.112L462.878 360.415Z" fill="#FBBEBE"/>
<path d="M391.804 204.956L384.252 193.144C384.252 193.144 369.621 196.349 368.263 197.963C366.905 199.577 371.884 229.162 371.884 229.162C371.884 229.162 372.79 237.231 376.864 241.534L380.939 244.762L414.439 236.693L415.699 218.982C416.157 212.531 415.477 206.037 413.701 199.916C411.925 193.796 409.092 188.183 405.385 183.439L399.556 184.386L391.804 204.956Z" fill="#575A89"/>
<path d="M370.073 199.039L367.809 197.963L357.397 196.887C357.397 196.887 353.776 195.811 354.681 193.66C355.586 191.508 356.492 190.97 354.681 190.432C352.87 189.894 352.417 189.356 352.87 187.742C353.323 186.129 356.039 182.901 356.039 182.901L348.343 175.37C348.343 175.37 347.927 175.72 347.253 176.368C343.432 180.044 331.342 193.307 340.194 206.57C350.607 222.169 362.83 231.314 372.789 228.086L370.073 199.039Z" fill="#575A89"/>
<path d="M380.033 242.073V249.603C380.033 249.603 375.958 258.748 377.316 267.355C378.675 275.961 379.127 280.265 379.127 280.265C379.275 287.585 380.343 294.837 382.296 301.782C385.465 312.54 375.053 383.008 388.181 384.084C401.31 385.159 408.553 386.235 412.628 380.856C416.702 375.477 405.837 282.954 405.837 282.954C405.837 282.954 442.959 374.939 450.655 371.173C458.351 367.408 477.817 358.801 475.554 353.96C473.29 349.119 416.249 241.535 416.249 241.535L414.438 236.693L380.033 242.073Z" fill="#2F2E41"/>
<path d="M401.763 398.07C401.763 398.07 394.519 397.532 394.519 400.221C394.519 402.911 390.898 412.056 390.898 412.056C390.898 412.056 388.182 422.814 395.425 421.738C402.668 420.662 407.195 410.98 407.195 410.98L405.384 400.759L401.763 398.07Z" fill="#2F2E41"/>
<path d="M477.364 379.242C477.364 379.242 471.026 374.401 471.479 377.629C471.932 380.856 472.385 389.463 475.554 390.001C478.723 390.539 488.229 393.766 488.682 394.842C489.135 395.918 500 400.221 500 393.228C500 386.235 493.209 380.856 493.209 380.856L485.513 373.863C485.513 373.863 480.533 373.325 479.628 377.091C478.723 380.856 477.364 379.242 477.364 379.242Z" fill="#2F2E41"/>
<path d="M385.483 152.371C389.635 152.371 393 148.372 393 143.439C393 138.506 389.635 134.508 385.483 134.508C381.332 134.508 377.967 138.506 377.967 143.439C377.967 148.372 381.332 152.371 385.483 152.371Z" fill="#2F2E41"/>
<path d="M377.175 141.089C377.175 138.883 377.862 136.755 379.104 135.115C380.346 133.475 382.054 132.44 383.9 132.207C383.638 132.174 383.374 132.157 383.109 132.157C381.116 132.157 379.204 133.098 377.794 134.773C376.384 136.448 375.593 138.72 375.593 141.089C375.593 143.457 376.384 145.729 377.794 147.404C379.204 149.079 381.116 150.02 383.109 150.02C383.374 150.02 383.638 150.003 383.9 149.97C382.054 149.738 380.346 148.702 379.104 147.062C377.862 145.422 377.175 143.294 377.175 141.089Z" fill="#2F2E41"/>
<path d="M397.538 153.41L387.268 147.018L373.085 149.633L370.15 165.032L377.455 164.698L379.496 159.041V164.605L382.866 164.452L384.822 155.444L386.045 165.032L398.027 164.742L397.538 153.41Z" fill="#2F2E41"/>
<path d="M396.923 243.319L381.084 243.828C381.084 243.828 367.569 246.952 368.327 240.471C369.086 233.989 382.271 236.256 382.271 236.256L396.703 233.64L396.923 243.319Z" fill="#FBBEBE"/>
<path d="M409.455 182.527C410.251 182.384 411.064 182.583 411.747 183.089C412.431 183.595 412.94 184.374 413.183 185.286C416.284 196.896 425.837 235.75 416.345 241.08C405.167 247.359 397.009 247.083 397.009 247.083L392.642 234.308L396.617 229.876L400.861 197.452L402.894 183.708L409.455 182.527Z" fill="#575A89"/>
<path opacity="0.4" d="M406.516 204.149L404.705 225.666L388.861 233.735L406.516 228.893V204.149Z" fill="black"/>
<path d="M321.066 133.115C326.169 134.722 330.585 138.533 333.448 143.804L334.929 146.529L335.004 146.641L360.982 155.674C361.458 155.839 361.861 156.22 362.103 156.735C362.345 157.25 362.408 157.856 362.277 158.425L360.26 167.212C360.195 167.498 360.082 167.766 359.929 168.001C359.776 168.235 359.585 168.431 359.368 168.577C359.151 168.724 358.911 168.818 358.664 168.854C358.416 168.89 358.164 168.867 357.924 168.787L331.939 160.157L331.938 160.158L329.328 161.33C324.523 163.489 319.252 163.702 314.334 161.936L321.066 133.115Z" fill="#3F3D56"/>
<path d="M348.424 158.598C348.671 157.599 347.592 156.345 346.015 155.797C344.438 155.248 342.961 155.614 342.715 156.613C342.469 157.612 343.547 158.867 345.124 159.415C346.701 159.963 348.178 159.597 348.424 158.598Z" fill="#575A89"/>
<path d="M347.097 159.52C347.699 159.52 348.188 158.94 348.188 158.224C348.188 157.508 347.699 156.928 347.097 156.928C346.495 156.928 346.006 157.508 346.006 158.224C346.006 158.94 346.495 159.52 347.097 159.52Z" fill="#3F3D56"/>
<path d="M323.238 149.759C325.404 141.821 324.711 134.442 321.69 133.278C318.669 132.114 314.464 137.605 312.297 145.544C310.131 153.482 310.824 160.861 313.845 162.025C316.866 163.189 321.071 157.697 323.238 149.759Z" fill="#94D3AC"/>
<path opacity="0.4" d="M322.43 149.478C324.518 141.829 323.95 134.7 321.203 133.15C321.368 133.174 321.531 133.217 321.69 133.278C324.711 134.442 325.404 141.821 323.238 149.759C321.071 157.697 316.866 163.189 313.845 162.025C313.735 161.982 313.628 161.931 313.524 161.872C316.496 162.322 320.378 156.998 322.43 149.478Z" fill="black"/>
<path d="M321.407 133.144L262.448 78.7999C252.022 69.1208 242.017 58.8179 232.472 47.9311C215.665 28.8953 192.849 13.6759 166.286 5.57288C101.747 -14.1138 50.6197 20.7931 27.3655 72.0482C-8.16949 150.372 -35.4023 277.469 122.159 209.815C156.618 195.019 191.498 193.447 217.946 185.653L313.711 162.191L321.407 133.144Z" fill="#94D3AC"/>
<path d="M144.399 41.697C146.149 41.697 147.568 40.0111 147.568 37.9315C147.568 35.8519 146.149 34.1661 144.399 34.1661C142.649 34.1661 141.23 35.8519 141.23 37.9315C141.23 40.0111 142.649 41.697 144.399 41.697Z" fill="#F2F2F2"/>
<path d="M205.958 46.6351H205.133V45.655H204.972V46.6351H204.147V46.8266H204.972V47.8067H205.133V46.8266H205.958V46.6351Z" fill="#F2F2F2"/>
<path d="M288.803 128.399H287.979V127.419H287.818V128.399H286.993V128.591H287.818V129.571H287.979V128.591H288.803V128.399Z" fill="#F2F2F2"/>
<path d="M282.918 153.681H282.093V152.701H281.932V153.681H281.107V153.873H281.932V154.853H282.093V153.873H282.918V153.681Z" fill="#F2F2F2"/>
<path d="M29.8555 175.198H29.0307V174.218H28.8695V175.198H28.0447V175.39H28.8695V176.37H29.0307V175.39H29.8555V175.198Z" fill="#F2F2F2"/>
<path d="M66.0721 57.9314H65.2472V56.9513H65.0861V57.9314H64.2612V58.1229H65.0861V59.103H65.2472V58.1229H66.0721V57.9314Z" fill="#F2F2F2"/>
<path d="M206.864 157.985H206.039V157.005H205.878V157.985H205.053V158.176H205.878V159.156H206.039V158.176H206.864V157.985Z" fill="#F2F2F2"/>
<path d="M120.397 23.5045H119.572V22.5244H119.411V23.5045H118.586V23.696H119.411V24.6761H119.572V23.696H120.397V23.5045Z" fill="#F2F2F2"/>
<path d="M120.714 100.953L119.686 101.142C120.008 103.584 120.261 106.08 120.447 108.549L121.484 108.441C121.298 105.94 121.04 103.422 120.714 100.953Z" fill="#E6E6E6"/>
<path d="M117.902 86.2465L116.906 86.6069C117.509 88.9738 118.047 91.3998 118.505 93.815L119.523 93.5407C119.057 91.0986 118.509 88.6456 117.902 86.2465Z" fill="#E6E6E6"/>
<path d="M113.416 72.1422L112.47 72.6586C113.339 74.9125 114.154 77.2256 114.892 79.5386L115.865 79.1029C115.119 76.7629 114.299 74.4176 113.416 72.1422Z" fill="#E6E6E6"/>
<path d="M107.35 58.9201L106.472 59.5818C107.59 61.6689 108.663 63.8313 109.659 65.9992L110.573 65.4074C109.568 63.2128 108.482 61.0288 107.35 58.9201Z" fill="#E6E6E6"/>
<path d="M99.8079 46.8008L99.0156 47.6023C100.365 49.485 101.678 51.4538 102.918 53.4441L103.751 52.7072C102.501 50.6953 101.175 48.705 99.8079 46.8008Z" fill="#E6E6E6"/>
<path d="M90.9441 36.01L90.2515 36.9299C91.8088 38.5813 93.3344 40.3188 94.7876 42.0885L95.5345 41.2225C94.0633 39.4312 92.5195 37.6776 90.9441 36.01Z" fill="#E6E6E6"/>
<path d="M80.9299 26.747L80.3459 27.7691C82.0753 29.1515 83.7865 30.6255 85.4298 32.1478L86.0727 31.1741C84.4067 29.6357 82.6774 28.1457 80.9299 26.747Z" fill="#E6E6E6"/>
<path d="M71.8171 20.3135V21.7121C72.8991 22.3845 73.972 23.0892 75.0223 23.81L75.5429 22.7396C74.3206 21.9004 73.0787 21.0917 71.8171 20.3135Z" fill="#E6E6E6"/>
<path d="M120.784 116.179L121.825 116.157C121.844 117.406 121.845 118.661 121.829 119.888L120.789 119.869C120.804 118.655 120.803 117.414 120.784 116.179Z" fill="#E6E6E6"/>
<path d="M59.5984 206.924L58.5708 207.112C58.8922 209.554 59.1457 212.05 59.3313 214.519L60.368 214.412C60.1824 211.91 59.9244 209.393 59.5984 206.924Z" fill="#E6E6E6"/>
<path d="M56.787 192.217L55.791 192.577C56.3931 194.944 56.9318 197.37 57.3891 199.785L58.4077 199.511C57.9414 197.069 57.3936 194.616 56.787 192.217Z" fill="#E6E6E6"/>
<path d="M52.3011 178.113L51.355 178.629C52.2242 180.883 53.039 183.196 53.777 185.509L54.7503 185.073C54.0033 182.733 53.1839 180.388 52.3011 178.113Z" fill="#E6E6E6"/>
<path d="M46.2345 164.891L45.3562 165.552C46.4744 167.639 47.5473 169.802 48.5433 171.97L49.4577 171.378C48.4527 169.183 47.3662 166.999 46.2345 164.891Z" fill="#E6E6E6"/>
<path d="M38.6926 152.771L37.9004 153.573C39.2495 155.455 40.5623 157.424 41.8027 159.414L42.6357 158.677C41.3862 156.666 40.0598 154.675 38.6926 152.771Z" fill="#E6E6E6"/>
<path d="M29.8286 141.981L29.136 142.9C30.6933 144.552 32.2189 146.289 33.6721 148.059L34.4191 147.193C32.9478 145.402 31.404 143.648 29.8286 141.981Z" fill="#E6E6E6"/>
<path d="M19.8145 132.717L19.2305 133.74C20.9598 135.122 22.671 136.596 24.3144 138.118L24.9572 137.145C23.2912 135.606 21.5619 134.116 19.8145 132.717Z" fill="#E6E6E6"/>
<path d="M10.7017 126.284V127.683C11.7836 128.355 12.8565 129.06 13.9068 129.78L14.4274 128.71C13.2051 127.871 11.9632 127.062 10.7017 126.284Z" fill="#E6E6E6"/>
<path d="M59.6687 222.15L60.7093 222.127C60.7284 223.376 60.7298 224.631 60.7136 225.858L59.6731 225.839C59.6889 224.626 59.6875 223.385 59.6687 222.15Z" fill="#E6E6E6"/>
<path d="M268.749 153.67L267.721 153.858C268.043 156.3 268.296 158.796 268.482 161.265L269.518 161.157C269.333 158.656 269.075 156.139 268.749 153.67Z" fill="#E6E6E6"/>
<path d="M265.937 138.963L264.941 139.323C265.544 141.69 266.082 144.116 266.539 146.531L267.558 146.257C267.092 143.815 266.544 141.362 265.937 138.963Z" fill="#E6E6E6"/>
<path d="M261.451 124.858L260.505 125.375C261.374 127.629 262.189 129.942 262.927 132.255L263.9 131.819C263.153 129.479 262.334 127.134 261.451 124.858Z" fill="#E6E6E6"/>
<path d="M255.385 111.636L254.507 112.298C255.625 114.385 256.698 116.548 257.694 118.715L258.608 118.124C257.603 115.929 256.517 113.745 255.385 111.636Z" fill="#E6E6E6"/>
<path d="M247.843 99.517L247.051 100.318C248.4 102.201 249.713 104.17 250.953 106.16L251.786 105.423C250.537 103.412 249.21 101.421 247.843 99.517Z" fill="#E6E6E6"/>
<path d="M238.979 88.7263L238.286 89.6462C239.843 91.2976 241.369 93.035 242.822 94.8048L243.569 93.9388C242.098 92.1475 240.554 90.3939 238.979 88.7263Z" fill="#E6E6E6"/>
<path d="M228.965 79.4633L228.381 80.4853C230.11 81.8678 231.822 83.3417 233.465 84.864L234.108 83.8904C232.442 82.3519 230.713 80.8619 228.965 79.4633Z" fill="#E6E6E6"/>
<path d="M219.852 73.0298V74.4284C220.934 75.1008 222.007 75.8055 223.057 76.5263L223.578 75.4558C222.356 74.6167 221.114 73.808 219.852 73.0298Z" fill="#E6E6E6"/>
<path d="M268.819 168.896L269.86 168.873C269.879 170.122 269.88 171.377 269.864 172.604L268.823 172.585C268.839 171.372 268.838 170.13 268.819 168.896Z" fill="#E6E6E6"/>
<path d="M67.5868 107.528H66.8195V106.615H66.6696V107.528H65.9019V107.705H66.6696V108.618H66.8195V107.705H67.5868V107.528Z" fill="#F2F2F2"/>
<path d="M58.7404 162.588H57.973V161.675H57.8232V162.588H57.0554V162.766H57.8232V163.677H57.973V162.766H58.7404V162.588Z" fill="#F2F2F2"/>
<path d="M32.7836 210.843H32.0158V209.931H31.866V210.843H31.0986V211.021H31.866V211.933H32.0158V211.021H32.7836V210.843Z" fill="#F2F2F2"/>
<path d="M104.991 149.64C97.5696 136.532 94.3472 120.698 95.9083 105.009C97.4693 89.3199 103.71 74.815 113.5 64.1246C123.289 53.4343 135.978 47.2664 149.267 46.7394C162.555 46.2125 175.562 51.3613 185.929 61.2523C196.297 71.1433 203.338 85.1215 205.776 100.652C208.214 116.182 205.887 132.237 199.218 145.904C192.548 159.571 181.978 169.945 169.423 175.146C156.869 180.347 143.161 180.029 130.787 174.251C129.985 177.654 128.485 180.767 126.422 183.311C124.359 185.856 121.797 187.753 118.965 188.833C116.134 189.913 113.121 190.142 110.197 189.499C107.273 188.856 104.529 187.361 102.21 185.149C99.8912 182.937 98.0703 180.076 96.9102 176.822C95.7502 173.569 95.2872 170.024 95.5627 166.506C95.8383 162.988 96.8437 159.606 98.4891 156.662C100.134 153.719 102.368 151.306 104.991 149.64Z" fill="#3F3D56"/>
<path d="M150.809 75.006C163.555 75.006 172.323 83.4062 172.323 95.4815C172.323 103.478 169.061 109.011 162.773 113.413C156.859 117.492 154.854 120.48 154.854 125.65C154.854 126.069 154.784 126.483 154.649 126.871C154.514 127.258 154.316 127.609 154.067 127.906C153.818 128.202 153.522 128.437 153.196 128.597C152.87 128.758 152.521 128.84 152.169 128.84H145.653C144.957 128.84 144.288 128.519 143.788 127.945C143.287 127.37 142.994 126.587 142.969 125.761L142.958 125.367C142.38 117.047 144.827 111.878 150.979 107.597C156.723 103.518 159.136 100.934 159.136 95.9258C159.136 90.918 155.058 87.2429 149.993 87.2429C146.144 87.2429 143.098 89.4691 141.701 93.1038C141.21 94.3342 140.432 95.3718 139.461 96.0938C138.489 96.8157 137.364 97.1919 136.218 97.1777C131.803 97.1777 128.886 91.5992 130.951 86.9624C134.217 79.6275 141.108 75.006 150.809 75.006ZM141.87 144.227C141.87 139.583 145.133 135.908 149.144 135.908C153.188 135.908 156.451 139.542 156.451 144.227C156.451 148.912 153.188 152.546 149.144 152.546C145.099 152.546 141.87 148.912 141.87 144.227Z" fill="#94D3AC"/>
</g>
<defs>
<clipPath id="clip0">
<rect width="500" height="429" fill="white"/>
</clipPath>
</defs>
</svg>
