<svg width="64" height="48" viewBox="0 0 64 48" fill="none" xmlns="http://www.w3.org/2000/svg">
<g clip-path="url(#clip0)">
<rect width="64" height="48" fill="white"/>
<ellipse cx="18" cy="31" rx="17" ry="16" fill="#94D3AC"/>
<ellipse cx="47" cy="16" rx="17" ry="16" fill="#FD5E53"/>
<path d="M22.94 23.96C22.96 23.9533 22.9933 23.95 23.04 23.95C23.14 23.95 23.2167 23.9833 23.27 24.05C23.3233 24.1167 23.35 24.2067 23.35 24.32C23.35 24.5267 23.31 24.69 23.23 24.81C23.15 24.9233 23.03 25.0067 22.87 25.06C22.5633 25.16 22.2367 25.21 21.89 25.21C21.5967 25.21 21.32 25.17 21.06 25.09C20.8667 25.4033 20.6533 25.7267 20.42 26.06C20.1533 26.44 19.9233 26.7 19.73 26.84C19.5433 26.98 19.33 27.05 19.09 27.05C18.8233 27.05 18.62 26.9467 18.48 26.74C18.3467 26.5333 18.2633 26.1933 18.23 25.72L18.18 24.99C17.9733 25.55 17.7867 25.9767 17.62 26.27C17.46 26.5633 17.2967 26.7667 17.13 26.88C16.97 26.9933 16.78 27.05 16.56 27.05C16.2867 27.05 16.07 26.9433 15.91 26.73C15.7567 26.5167 15.66 26.18 15.62 25.72C15.54 24.7867 15.5 23.97 15.5 23.27V22.92C15.5067 22.7 15.5667 22.5467 15.68 22.46C15.7933 22.3733 15.9633 22.33 16.19 22.33C16.3633 22.33 16.49 22.37 16.57 22.45C16.6567 22.5233 16.7 22.65 16.7 22.83C16.7 23.5967 16.7467 24.5933 16.84 25.82C17.2933 24.8667 17.71 23.8733 18.09 22.84C18.1633 22.64 18.25 22.5067 18.35 22.44C18.4567 22.3667 18.5833 22.33 18.73 22.33C18.91 22.33 19.0333 22.3667 19.1 22.44C19.1733 22.5133 19.21 22.6433 19.21 22.83C19.21 23.5967 19.2567 24.5933 19.35 25.82C19.75 25.2267 20.05 24.7533 20.25 24.4C20.15 24.2067 20.1 23.9767 20.1 23.71C20.1 23.4833 20.15 23.2633 20.25 23.05C20.35 22.8367 20.4867 22.6633 20.66 22.53C20.8333 22.3967 21.03 22.33 21.25 22.33C21.4433 22.33 21.6 22.4 21.72 22.54C21.84 22.6733 21.9 22.87 21.9 23.13C21.9 23.43 21.82 23.7733 21.66 24.16C21.9133 24.1467 22.25 24.0967 22.67 24.01L22.94 23.96ZM23.712 27.05C23.2986 27.05 22.9686 26.9 22.722 26.6C22.4753 26.3 22.352 25.9067 22.352 25.42C22.352 24.8867 22.4753 24.3833 22.722 23.91C22.9686 23.43 23.2953 23.0467 23.702 22.76C24.1153 22.4667 24.552 22.32 25.012 22.32C25.1586 22.32 25.2553 22.35 25.302 22.41C25.3553 22.4633 25.3986 22.5633 25.432 22.71C25.572 22.6833 25.7186 22.67 25.872 22.67C26.1986 22.67 26.362 22.7867 26.362 23.02C26.362 23.16 26.312 23.4933 26.212 24.02C26.0586 24.7867 25.982 25.32 25.982 25.62C25.982 25.72 26.0053 25.8 26.052 25.86C26.1053 25.92 26.172 25.95 26.252 25.95C26.3786 25.95 26.532 25.87 26.712 25.71C26.892 25.5433 27.1353 25.2767 27.442 24.91C27.522 24.8167 27.612 24.77 27.712 24.77C27.7986 24.77 27.8653 24.81 27.912 24.89C27.9653 24.97 27.992 25.08 27.992 25.22C27.992 25.4867 27.9286 25.6933 27.802 25.84C27.5286 26.18 27.2386 26.4667 26.932 26.7C26.6253 26.9333 26.3286 27.05 26.042 27.05C25.822 27.05 25.6186 26.9767 25.432 26.83C25.252 26.6767 25.1153 26.47 25.022 26.21C24.6753 26.77 24.2386 27.05 23.712 27.05ZM24.072 26.04C24.2186 26.04 24.3586 25.9533 24.492 25.78C24.6253 25.6067 24.722 25.3767 24.782 25.09L25.152 23.25C24.872 23.2567 24.612 23.3633 24.372 23.57C24.1386 23.77 23.952 24.0367 23.812 24.37C23.672 24.7033 23.602 25.0567 23.602 25.43C23.602 25.6367 23.642 25.79 23.722 25.89C23.8086 25.99 23.9253 26.04 24.072 26.04ZM29.0392 27.27C28.6926 27.27 28.4259 27.19 28.2392 27.03C28.0592 26.87 27.9692 26.69 27.9692 26.49C27.9692 26.3167 28.0326 26.1667 28.1592 26.04C28.2859 25.9133 28.4726 25.85 28.7192 25.85C28.8059 25.85 28.9059 25.86 29.0192 25.88C29.1392 25.8933 29.2292 25.9033 29.2892 25.91C29.2826 25.7367 29.2426 25.5733 29.1692 25.42C29.1026 25.2667 29.0159 25.12 28.9092 24.98C28.8026 24.8333 28.7026 24.7067 28.6092 24.6C28.4026 24.9933 28.1959 25.32 27.9892 25.58C27.7892 25.84 27.5692 26.0867 27.3292 26.32C27.2092 26.44 27.0826 26.5 26.9492 26.5C26.8426 26.5 26.7559 26.4633 26.6892 26.39C26.6226 26.31 26.5892 26.2133 26.5892 26.1C26.5892 25.9667 26.6359 25.8433 26.7292 25.73L26.8592 25.57C27.2259 25.1167 27.5026 24.7433 27.6892 24.45C27.8026 24.2567 27.9359 24 28.0892 23.68C28.2426 23.3533 28.3926 23.0167 28.5392 22.67C28.6659 22.3767 28.9292 22.23 29.3292 22.23C29.5159 22.23 29.6459 22.2467 29.7192 22.28C29.7926 22.3133 29.8292 22.3667 29.8292 22.44C29.8292 22.48 29.8159 22.5433 29.7892 22.63C29.7626 22.7167 29.7259 22.8033 29.6792 22.89C29.5592 23.13 29.4992 23.3333 29.4992 23.5C29.4992 23.6 29.5326 23.71 29.5992 23.83C29.6726 23.95 29.7826 24.1 29.9292 24.28C30.1426 24.56 30.3026 24.8 30.4092 25C30.5226 25.1933 30.5792 25.4067 30.5792 25.64C30.5792 25.7067 30.5726 25.8 30.5592 25.92C30.8859 25.7933 31.2692 25.4567 31.7092 24.91C31.7892 24.8167 31.8792 24.77 31.9792 24.77C32.0659 24.77 32.1326 24.81 32.1792 24.89C32.2326 24.97 32.2592 25.08 32.2592 25.22C32.2592 25.4733 32.1959 25.68 32.0692 25.84C31.7359 26.2533 31.4159 26.5367 31.1092 26.69C30.8092 26.8367 30.4359 26.9167 29.9892 26.93C29.7226 27.1567 29.4059 27.27 29.0392 27.27ZM34.9868 22.34C35.2001 22.34 35.3601 22.3967 35.4668 22.51C35.5801 22.6167 35.6368 22.7767 35.6368 22.99C35.6368 23.1633 35.6001 23.49 35.5268 23.97C35.4601 24.3767 35.4068 24.7633 35.3668 25.13C35.3268 25.49 35.3068 25.8933 35.3068 26.34C35.3068 26.5933 35.2535 26.7767 35.1468 26.89C35.0468 26.9967 34.8801 27.05 34.6468 27.05C34.4268 27.05 34.2668 26.9933 34.1668 26.88C34.0668 26.7667 34.0168 26.5967 34.0168 26.37C34.0168 26.1033 34.0635 25.6633 34.1568 25.05C34.2368 24.5167 34.2768 24.1767 34.2768 24.03C34.2768 23.9233 34.2401 23.87 34.1668 23.87C34.0801 23.87 33.9568 23.9833 33.7968 24.21C33.6368 24.43 33.4768 24.7233 33.3168 25.09C33.1568 25.4567 33.0268 25.8433 32.9268 26.25C32.8535 26.5633 32.7668 26.7767 32.6668 26.89C32.5735 26.9967 32.4235 27.05 32.2168 27.05C32.0101 27.05 31.8568 26.9767 31.7568 26.83C31.6635 26.6767 31.6001 26.4433 31.5668 26.13C31.5335 25.8167 31.5168 25.3567 31.5168 24.75C31.5168 23.7233 31.6201 22.6533 31.8268 21.54C32.0401 20.4267 32.3501 19.4933 32.7568 18.74C33.1701 17.98 33.6635 17.6 34.2368 17.6C34.5435 17.6 34.7901 17.7333 34.9768 18C35.1701 18.26 35.2668 18.6 35.2668 19.02C35.2668 19.6933 35.0701 20.3933 34.6768 21.12C34.2835 21.84 33.6435 22.6833 32.7568 23.65C32.7368 23.9967 32.7268 24.3533 32.7268 24.72C32.9468 24.1533 33.1901 23.6933 33.4568 23.34C33.7301 22.98 33.9968 22.7233 34.2568 22.57C34.5235 22.4167 34.7668 22.34 34.9868 22.34ZM34.0268 18.59C33.9068 18.59 33.7735 18.7633 33.6268 19.11C33.4801 19.45 33.3368 19.9133 33.1968 20.5C33.0635 21.08 32.9535 21.7133 32.8668 22.4C33.2801 21.9133 33.6201 21.3833 33.8868 20.81C34.1601 20.2367 34.2968 19.7167 34.2968 19.25C34.2968 19.0367 34.2735 18.8733 34.2268 18.76C34.1801 18.6467 34.1135 18.59 34.0268 18.59ZM37.0391 27.05C36.7458 27.05 36.5225 26.97 36.3691 26.81C36.2225 26.65 36.1491 26.44 36.1491 26.18C36.1491 25.88 36.2325 25.64 36.3991 25.46C36.5725 25.28 36.8125 25.19 37.1191 25.19C37.4125 25.19 37.6325 25.2633 37.7791 25.41C37.9325 25.55 38.0091 25.76 38.0091 26.04C38.0091 26.3467 37.9225 26.5933 37.7491 26.78C37.5758 26.96 37.3391 27.05 37.0391 27.05ZM42.2095 24.77C42.2961 24.77 42.3628 24.81 42.4095 24.89C42.4628 24.97 42.4895 25.08 42.4895 25.22C42.4895 25.4867 42.4261 25.6933 42.2995 25.84C42.0128 26.1933 41.6995 26.4833 41.3595 26.71C41.0261 26.9367 40.6461 27.05 40.2195 27.05C39.6328 27.05 39.1961 26.7833 38.9095 26.25C38.6295 25.7167 38.4895 25.0267 38.4895 24.18C38.4895 23.3667 38.5928 22.44 38.7995 21.4C39.0128 20.36 39.3228 19.4667 39.7295 18.72C40.1428 17.9733 40.6328 17.6 41.1995 17.6C41.5195 17.6 41.7695 17.75 41.9495 18.05C42.1361 18.3433 42.2295 18.7667 42.2295 19.32C42.2295 20.1133 42.0095 21.0333 41.5695 22.08C41.1295 23.1267 40.5328 24.1633 39.7795 25.19C39.8261 25.4633 39.9028 25.66 40.0095 25.78C40.1161 25.8933 40.2561 25.95 40.4295 25.95C40.7028 25.95 40.9428 25.8733 41.1495 25.72C41.3561 25.56 41.6195 25.29 41.9395 24.91C42.0195 24.8167 42.1095 24.77 42.2095 24.77ZM40.9795 18.59C40.8261 18.59 40.6528 18.8667 40.4595 19.42C40.2661 19.9733 40.0961 20.66 39.9495 21.48C39.8028 22.3 39.7228 23.0867 39.7095 23.84C40.1828 23.06 40.5595 22.28 40.8395 21.5C41.1195 20.7133 41.2595 19.9967 41.2595 19.35C41.2595 18.8433 41.1661 18.59 40.9795 18.59ZM45.1812 22.34C45.3345 22.34 45.4412 22.36 45.5012 22.4C45.5612 22.44 45.5912 22.5067 45.5912 22.6C45.5912 22.76 45.5045 23.33 45.3312 24.31C45.1778 25.25 45.0878 25.8067 45.0612 25.98C44.8145 27.6933 44.4745 29.05 44.0412 30.05C43.6078 31.05 43.0312 31.55 42.3112 31.55C41.9712 31.55 41.6945 31.4433 41.4812 31.23C41.2678 31.0233 41.1612 30.75 41.1612 30.41C41.1612 30.0967 41.2312 29.7767 41.3712 29.45C41.5178 29.1233 41.7845 28.7467 42.1712 28.32C42.5645 27.9 43.1178 27.4167 43.8312 26.87L43.8612 26.64C43.9078 26.3933 43.9612 26.04 44.0212 25.58C43.8878 26.06 43.7012 26.4267 43.4612 26.68C43.2212 26.9267 42.9678 27.05 42.7012 27.05C42.4012 27.05 42.1545 26.9133 41.9612 26.64C41.7745 26.36 41.6812 26.0133 41.6812 25.6C41.6812 25.1 41.7145 24.6433 41.7812 24.23C41.8478 23.81 41.9578 23.3667 42.1112 22.9C42.1778 22.7 42.2712 22.5567 42.3912 22.47C42.5112 22.3833 42.7012 22.34 42.9612 22.34C43.1078 22.34 43.2078 22.3633 43.2612 22.41C43.3212 22.4567 43.3512 22.5267 43.3512 22.62C43.3512 22.6733 43.3145 22.8533 43.2412 23.16C43.1745 23.4067 43.1212 23.63 43.0812 23.83C43.0278 24.1033 42.9812 24.3667 42.9412 24.62C42.9012 24.8667 42.8812 25.07 42.8812 25.23C42.8812 25.4833 42.9512 25.61 43.0912 25.61C43.1912 25.61 43.3145 25.51 43.4612 25.31C43.6145 25.11 43.7745 24.8067 43.9412 24.4C44.1145 23.9933 44.2812 23.4933 44.4412 22.9C44.4945 22.7 44.5745 22.5567 44.6812 22.47C44.7945 22.3833 44.9612 22.34 45.1812 22.34ZM42.4212 30.58C42.5878 30.58 42.7745 30.3867 42.9812 30C43.1878 29.6133 43.3945 28.97 43.6012 28.07C43.0878 28.5033 42.7145 28.8967 42.4812 29.25C42.2545 29.61 42.1412 29.9233 42.1412 30.19C42.1412 30.3033 42.1612 30.3967 42.2012 30.47C42.2478 30.5433 42.3212 30.58 42.4212 30.58Z" fill="#EFFCEF"/>
</g>
<defs>
<clipPath id="clip0">
<rect width="64" height="48" fill="white"/>
</clipPath>
</defs>
</svg>
